{
	"info": {
		"_postman_id": "184ecd97-ed21-4895-b83e-6f2d1f1c52e0",
		"name": "TestApi",
		"schema": "https://schema.getpostman.com/json/collection/v2.1.0/collection.json"
	},
	"item": [
		{
			"name": "localhost:5000/api/bicicletas",
			"request": {
				"method": "GET",
				"header": [],
				"url": {
					"raw": "localhost:3000/api/bicicletas",
					"host": [
						"localhost"
					],
					"port": "3000",
					"path": [
						"api",
						"bicicletas"
					]
				}
			},
			"response": []
		},
		{
			"name": "localhost:5000/api/bicicletas/create",
			"request": {
				"method": "POST",
				"header": [],
				"body": {
					"mode": "raw",
					"raw": "{\r\n    \"id\": 4,\r\n    \"color\": \"Verde\",\r\n    \"modelo\": \"Urbana\",\r\n    \"lat\": -33.453022,\r\n    \"lng\": -70.6824923\r\n}",
					"options": {
						"raw": {
							"language": "json"
						}
					}
				},
				"url": {
					"raw": "localhost:3000/api/bicicletas/create",
					"host": [
						"localhost"
					],
					"port": "3000",
					"path": [
						"api",
						"bicicletas",
						"create"
					]
				}
			},
			"response": []
		},
		{
			"name": "localhost:5000/api/bicicletas/delete",
			"request": {
				"method": "DELETE",
				"header": [],
				"body": {
					"mode": "raw",
					"raw": " {\"id\": 4}",
					"options": {
						"raw": {
							"language": "json"
						}
					}
				},
				"url": {
					"raw": "localhost:3000/api/bicicletas/delete",
					"host": [
						"localhost"
					],
					"port": "3000",
					"path": [
						"api",
						"bicicletas",
						"delete"
					]
				}
			},
			"response": []
		},
		{
			"name": "localhost:5000/api/bicicletas/update",
			"request": {
				"method": "PUT",
				"header": [],
				"body": {
					"mode": "raw",
					"raw": "{\r\n    \"id\": 4,\r\n    \"color\": \"Negra\",\r\n    \"modelo\": \"Montaña\",\r\n    \"lat\": -33.453022,\r\n    \"lng\": -70.6824923\r\n}",
					"options": {
						"raw": {
							"language": "json"
						}
					}
				},
				"url": {
					"raw": "localhost:3000/api/bicicletas/update",
					"host": [
						"localhost"
					],
					"port": "3000",
					"path": [
						"api",
						"bicicletas",
						"update"
					]
				}
			},
			"response": []
		},
		{
			"name": "localhost:5000/api/usuarios",
			"request": {
				"method": "GET",
				"header": [],
				"url": {
					"raw": "localhost:5000/api/usuarios",
					"host": [
						"localhost"
					],
					"port": "5000",
					"path": [
						"api",
						"usuarios"
					]
				}
			},
			"response": []
		},
		{
			"name": "localhost:5000/api/usuarios/create",
			"request": {
				"method": "POST",
				"header": [],
				"body": {
					"mode": "raw",
					"raw": "{ \"nombre\" : \"abel\"}",
					"options": {
						"raw": {
							"language": "json"
						}
					}
				},
				"url": {
					"raw": "localhost:5000/api/usuarios/create",
					"host": [
						"localhost"
					],
					"port": "5000",
					"path": [
						"api",
						"usuarios",
						"create"
					]
				}
			},
			"response": []
		},
		{
			"name": "localhost:5000/api/usuarios/reservar",
			"request": {
				"method": "POST",
				"header": [],
				"body": {
					"mode": "raw",
					"raw": "{\r\n    \"id\": \"5f3f0ea89336ee0584d26076\",\r\n    \"bici_id\": \"5f3f0daf9336ee0584d26074\",\r\n    \"desde\": \"2020-08-20\",\r\n    \"hasta\": \"2020-08-20\"\r\n}",
					"options": {
						"raw": {
							"language": "json"
						}
					}
				},
				"url": {
					"raw": "localhost:5000/api/usuarios/reservar",
					"host": [
						"localhost"
					],
					"port": "5000",
					"path": [
						"api",
						"usuarios",
						"reservar"
					]
				}
			},
			"response": []
		},
		{
			"name": "localhost:5000/api/auth/authenticate",
			"protocolProfileBehavior": {
				"disabledSystemHeaders": {},
				"disableUrlEncoding": true
			},
			"request": {
				"method": "POST",
				"header": [
					{
						"key": "",
						"value": "",
						"type": "text",
						"disabled": true
					}
				],
				"body": {
					"mode": "raw",
					"raw": "{\r\n    \"email\" : \"cc2@aaaaa.cl\",\r\n    \"password\" : \"12345\"\r\n}",
					"options": {
						"raw": {
							"language": "json"
						}
					}
				},
				"url": {
					"raw": "localhost:5000/api/auth/authenticate",
					"host": [
						"localhost"
					],
					"port": "5000",
					"path": [
						"api",
						"auth",
						"authenticate"
					]
				}
			},
			"response": []
		},
		{
			"name": "localhost:5000/api/bicicletas",
			"request": {
				"method": "GET",
				"header": [
					{
						"key": "x-access-token",
						"value": "eyJhbGciOiJIUzI1NiIsInR5cCI6IkpXVCJ9.eyJpZCI6IjVmNDA2YmNkNDNjYmNhMDk1ODViNGZhOCIsImlhdCI6MTU5ODE0NjU3NSwiZXhwIjoxNTk4NzUxMzc1fQ.X5fkZbOx5UZFbviXpmoi2KJSDPCKE8Ivr396NbzZXLw",
						"type": "text"
					}
				],
				"url": {
					"raw": "localhost:5000/api/bicicletas",
					"host": [
						"localhost"
					],
					"port": "5000",
					"path": [
						"api",
						"bicicletas"
					]
				}
			},
			"response": []
		}
	],
	"protocolProfileBehavior": {}
}